0	158.992	2.81831e-09	0.562184	0.336733	0.0256499	0.00231928	0.369543	2.10017	0	0.235944
0.0005	158.992	2.13904e-06	0.562147	0.336643	0.0256515	0.00233273	0.369541	2.09998	0	0.235924
0.001	158.992	7.97349e-06	0.562091	0.336507	0.0256561	0.00238402	0.369531	2.09703	0	0.235841
0.0015	158.992	2.45479e-05	0.562029	0.336356	0.0256687	0.00248744	0.369528	2.09645	0	0.235846
0.002	158.992	5.25823e-05	0.561964	0.336196	0.025689	0.00264286	0.369526	2.09632	0	0.236776
0.0025	158.993	0.000102221	0.561898	0.336034	0.025724	0.00285255	0.369521	2.09637	0	0.239872
0.003	158.993	0.0001737	0.561832	0.33587	0.025773	0.0031166	0.369515	2.09655	0	0.243261
0.0035	158.993	0.000280855	0.561755	0.335676	0.0258457	0.00342779	0.369504	2.09662	0	0.246729
0.004	158.994	0.00041859	0.561671	0.335467	0.0259365	0.00379709	0.36947	2.09574	0	0.249238
0.0045	158.994	0.000588851	0.56149	0.335021	0.0260511	0.00440506	0.369271	2.09585	0	0.250834
0.005	158.995	0.000909689	0.561163	0.334212	0.0263025	0.00548387	0.368733	2.09975	0	0.253585
0.0055	158.996	0.00131425	0.560887	0.333533	0.0264868	0.00665204	0.367928	2.10274	0	0.254026
0.006	158.996	0.00115978	0.561542	0.33517	0.0262173	0.00707624	0.367889	2.10229	0	0.25746
0.0065	158.996	0.00136134	0.561727	0.335605	0.02604	0.0056648	0.366439	2.08727	0	0.357383
0.007	158.995	0.00102902	0.561583	0.33524	0.026089	0.00551483	0.366843	2.0887	0	0.469422
0.0075	158.994	0.000679975	0.561901	0.336018	0.0261452	0.00524202	0.366665	2.16389	0	0.554423
0.008	158.996	0.00126999	0.561716	0.335542	0.026301	0.00561202	0.366302	1.03639	0	0.543226
0.0085	158.998	0.00179287	0.561275	0.334434	0.0267142	0.00700951	0.36554	0.765281	0	0.209272
0.009	158.996	0.0012362	0.56197	0.336175	0.0263968	0.00715506	0.366629	0.778489	0	0.232507
0.0095	158.997	0.00173335	0.561781	0.335667	0.0266502	0.00642072	0.367507	0.780214	0	0.221311
0.01	158.997	0.0015691	0.56187	0.335926	0.0263475	0.00636409	0.36837	0.783648	0	0.197378
0.0105	158.998	0.00197406	0.56133	0.33461	0.0265504	0.00693332	0.367377	0.782226	0	0.199897
0.011	159	0.00247356	0.560851	0.333442	0.0269031	0.00883273	0.365922	0.777071	0	0.197177
0.0115	159.004	0.00377357	0.561652	0.335338	0.0276393	0.0108785	0.366195	0.776191	0	0.231926
0.012	159	0.00245593	0.561412	0.334854	0.0266586	0.00946377	0.366605	0.776094	0	0.201889
0.0125	159.001	0.00304433	0.561174	0.334221	0.0271405	0.00906164	0.36593	0.769068	0	0.2174
0.013	159.003	0.00365879	0.560863	0.333499	0.0277336	0.0132919	0.366283	0.788491	0	0.246147
0.0135	159.004	0.00394926	0.560931	0.333565	0.0283801	0.0118846	0.365243	1.85553	0	0.79787
0.014	159.005	0.00430877	0.561118	0.334064	0.0279391	0.0129364	0.365425	4.4357	0	2.15661
0.0145	159.009	0.00558285	0.56096	0.333729	0.029352	0.0174125	0.365191	4.63681	0	2.18426
0.015	159.021	0.00949886	0.56042	0.332356	0.0314384	0.0223942	0.703991	3.58107	0	1.7705
0.0155	159.024	0.0105082	0.560312	0.332087	0.0314601	0.021195	0.553647	2.13391	0	1.02293
0.016	159.022	0.00975131	0.560858	0.333247	0.0319954	0.020921	1.22576	1.02583	0	0.948942
0.0165	159.023	0.0102774	0.560458	0.332302	0.0323162	0.0200688	0.36318	0.774205	0	0.481849
0.017	159.026	0.011162	0.560526	0.332603	0.0315901	0.0215025	0.362926	0.784408	0	0.779775
0.0175	159.011	0.00634129	0.560886	0.333465	0.0296944	0.0170775	0.374429	0.889068	0	0.554786
0.018	159.02	0.00906446	0.560655	0.332825	0.0308443	0.017973	0.434233	2.335	0	1.69746
0.0185	159.012	0.00648247	0.560687	0.332894	0.029198	0.0131875	0.364852	1.57983	0	1.02633
0.019	159.018	0.00846613	0.560606	0.332753	0.0293618	0.0160228	0.363827	0.800153	0	0.369071
0.0195	159.018	0.00851701	0.560652	0.332806	0.0300538	0.0152015	0.632191	1.04091	0	0.518345
0.02	159.026	0.0110457	0.560121	0.331609	0.0306487	0.0187292	0.996435	2.36739	0	0.573354
0.0205	159.029	0.012262	0.559961	0.331147	0.0305006	0.01746	1.25475	2.42371	0	0.505557
0.021	159.039	0.0155731	0.560712	0.333021	0.0326134	0.024023	1.1262	2.29581	0	0.604178
0.0215	159.032	0.0134535	0.56055	0.332559	0.0342452	0.024372	0.582109	1.99831	0	0.990266
0.022	159.048	0.0184297	0.559509	0.330051	0.0347109	0.0250783	0.366508	0.942875	0	0.593239
0.0225	159.056	0.0213262	0.559596	0.330586	0.0377328	0.0343203	0.845009	0.929046	0	0.890215
0.023	159.041	0.0166039	0.559558	0.329997	0.0353009	0.0254274	0.703767	1.1049	0	0.76479
0.0235	159.036	0.0150432	0.559826	0.330672	0.033801	0.0208517	1.15045	2.95257	0	1.33139
0.024	159.054	0.02075	0.560255	0.331394	0.0359141	0.0217244	1.31365	1.63017	0	0.862435
0.0245	159.028	0.0118503	0.560687	0.33297	0.0319335	0.0226604	0.952982	1.68213	0	0.956546
0.025	159.036	0.0147355	0.560103	0.331348	0.0349561	0.0235511	0.598134	2.62145	0	1.25307
0.0255	159.04	0.0159093	0.560259	0.331649	0.0318159	0.0160179	0.652433	2.39648	0	0.913587
0.026	159.04	0.0160268	0.560237	0.331767	0.0325834	0.0208795	0.690113	1.56783	0	1.12185
0.0265	159.073	0.0268823	0.559991	0.330705	0.0387388	0.0261217	0.765827	0.918201	0	0.651018
0.027	159.075	0.0275036	0.560632	0.332439	0.0403645	0.0350348	0.941934	0.920106	0	0.552052
0.0275	159.082	0.0299414	0.560282	0.331916	0.0414032	0.0350704	1.44625	0.933196	0	0.868493
0.028	159.055	0.0214468	0.560382	0.331723	0.037653	0.0259374	0.797238	1.30886	0	0.741212
0.0285	159.067	0.0248792	0.560141	0.331243	0.0360803	0.0252293	0.655736	3.15378	0	1.27593
0.029	159.048	0.0184642	0.560607	0.332188	0.036482	0.0231085	0.898393	3.03965	0	1.63862
0.0295	159.057	0.0215547	0.559766	0.330543	0.0362882	0.0265204	0.362757	2.54218	0	1.17659
0.03	159.061	0.0229256	0.559679	0.330404	0.0369005	0.0311989	0.564701	2.51625	0	1.10736
0.0305	159.045	0.0177815	0.560086	0.331432	0.0342373	0.0259473	0.78694	1.86614	0	0.975579
0.031	159.057	0.0217821	0.559851	0.33105	0.035239	0.0296998	1.14423	0.860501	0	0.574075
0.0315	159.086	0.0314124	0.559388	0.329433	0.0374909	0.0283127	0.653261	2.78657	0	1.14135
0.032	159.071	0.0265188	0.560268	0.331412	0.03677	0.0253755	0.709964	2.87708	0	1.14391
0.0325	159.068	0.0254595	0.560321	0.331933	0.0396001	0.034903	0.503734	2.6393	0	0.920039
0.033	159.048	0.0186512	0.56036	0.332104	0.0356486	0.0299449	1.62281	2.43014	0	1.36123
0.0335	159.072	0.0268668	0.560001	0.330785	0.0370984	0.0266577	1.04134	1.17054	0	0.708678
0.034	159.102	0.0366906	0.560231	0.331317	0.042791	0.0346673	0.978945	1.67012	0	0.838558
0.0345	159.112	0.0404558	0.558555	0.327627	0.042724	0.0379425	0.717228	1.63992	0	0.798084
0.035	159.105	0.0385625	0.559575	0.329562	0.0420655	0.0314423	0.86385	2.34035	0	1.04703
0.0355	159.098	0.0354726	0.560137	0.331207	0.0417244	0.0363351	0.873098	1.76257	0	0.864203
0.036	159.103	0.0375163	0.559668	0.329713	0.0420689	0.0320034	1.03792	2.12483	0	0.960451
0.0365	159.121	0.0430042	0.55981	0.329644	0.0465594	0.0350686	1.71668	0.844691	0	0.573124
0.037	159.096	0.0347945	0.55961	0.329922	0.0415995	0.0351691	0.514126	1.18052	0	0.582342
0.0375	159.108	0.0390213	0.559595	0.329855	0.0440897	0.0364618	0.46676	1.68823	0	0.761709
0.038	159.132	0.046543	0.559391	0.329903	0.0474887	0.0415737	1.59882	2.1533	0	0.538037
0.0385	159.123	0.044016	0.559899	0.330468	0.0477	0.0423014	0.80389	1.87768	0	0.822773
0.039	159.099	0.0357388	0.559115	0.329129	0.0423967	0.0378238	0.795063	0.998894	0	0.717872
0.0395	159.128	0.0452153	0.559718	0.329684	0.0446331	0.0344784	0.885599	3.13634	0	1.50111
0.04	159.139	0.048917	0.560121	0.33155	0.0460644	0.0458913	1.31725	2.16537	0	1.19056
0.0405	159.163	0.0572394	0.559298	0.328678	0.050415	0.0437997	0.965649	1.17751	0	0.696934
0.041	159.127	0.0450547	0.559453	0.329209	0.0471527	0.0381445	0.919573	3.12162	0	1.29234
0.0415	159.135	0.0485791	0.559783	0.329815	0.0470153	0.0380613	0.66642	1.90658	0	0.772192
0.042	159.106	0.0382491	0.559935	0.330284	0.0452746	0.0357957	0.882716	2.25243	0	1.0549
0.0425	159.138	0.0497498	0.559479	0.329616	0.047042	0.0453688	1.0056	2.22758	0	0.990682
0.043	159.114	0.0413016	0.559199	0.328754	0.0440996	0.0349425	1.3994	2.53255	0	1.02594
0.0435	159.095	0.0341549	0.560086	0.331165	0.0432608	0.0377028	1.18599	2.17185	0	0.99745
0.044	159.088	0.0324829	0.56071	0.331889	0.0421218	0.0264741	0.917044	1.92869	0	1.0609
0.0445	159.176	0.0619582	0.559883	0.330639	0.0530622	0.0562449	0.956259	1.87238	0	0.852007
0.045	159.157	0.0553416	0.559297	0.329172	0.0514377	0.0486403	1.32847	1.16726	0	0.787327
0.0455	159.109	0.0395549	0.559208	0.328888	0.0434503	0.035636	0.855091	2.95022	0	1.20566
0.046	159.085	0.031012	0.558684	0.328287	0.0415847	0.0364987	0.820689	2.96488	0	1.01132
0.0465	159.15	0.0527975	0.559881	0.330389	0.0504468	0.0476534	1.20183	2.21574	0	0.977377
0.047	159.218	0.0758988	0.559565	0.328978	0.0563313	0.0513503	0.906391	1.9272	0	0.79551
0.0475	159.228	0.0795749	0.559209	0.328493	0.0572196	0.053661	0.929569	1.33299	0	0.699432
0.048	159.202	0.0699352	0.559916	0.329652	0.0535136	0.0460203	1.28275	1.44535	0	0.821266
0.0485	159.143	0.0509905	0.559787	0.330639	0.049537	0.04763	1.01442	0.994365	0	0.745837
0.049	159.178	0.0627689	0.559436	0.329327	0.0510297	0.0488595	0.659636	1.64605	0	0.803334
0.0495	159.244	0.0853724	0.55907	0.328492	0.0568222	0.0569507	0.963518	1.90473	0	0.957254
0.05	159.34	0.118249	0.559073	0.327633	0.0657882	0.0625362	0.84623	1.94578	0	0.842774
0.0505	159.262	0.0922713	0.559675	0.328925	0.0608934	0.0562394	0.724366	2.04895	0	0.922824
0.051	159.222	0.0769013	0.559101	0.328821	0.056272	0.0544312	0.366591	1.75323	0	0.916324
0.0515	159.204	0.07409	0.559559	0.329476	0.0521519	0.048463	0.851536	2.19294	0	0.993171
0.052	159.213	0.0744026	0.559216	0.328522	0.0569008	0.0535556	0.802096	2.42119	0	0.799774
0.0525	159.187	0.0660915	0.559815	0.329671	0.0559041	0.0503299	1.13584	2.63098	0	1.09414
0.053	159.204	0.0714078	0.559686	0.330125	0.0540986	0.0557728	1.32678	2.53737	0	0.972693
0.0535	159.192	0.0675405	0.558959	0.328176	0.0527893	0.0515548	0.664924	1.77394	0	0.935084
0.054	159.216	0.0751432	0.559424	0.328809	0.0544402	0.0505077	0.957059	1.93833	0	0.922115
0.0545	159.227	0.0795143	0.559134	0.32841	0.0569468	0.0533343	0.527277	1.84106	0	0.842708
0.055	159.224	0.0782223	0.558945	0.32817	0.0561137	0.0564187	0.985257	2.14106	0	0.917912
0.0555	159.164	0.0580902	0.560027	0.330292	0.0505805	0.0453759	0.89657	1.78267	0	0.816243
0.056	159.187	0.0658994	0.559512	0.32869	0.0536978	0.0457374	0.781513	1.17311	0	0.776547
0.0565	159.225	0.0776069	0.558901	0.327855	0.0568062	0.0533334	1.28067	1.18939	0	0.742506
0.057	159.205	0.0723569	0.559076	0.327956	0.0500486	0.0443387	0.806373	1.35795	0	0.824045
0.0575	159.259	0.0893479	0.559278	0.328494	0.0596282	0.0560087	1.19029	2.06602	0	1.12532
0.058	159.315	0.109421	0.559187	0.328064	0.0635426	0.0604015	0.982604	1.22373	0	0.771832
0.0585	159.204	0.0712353	0.559589	0.329575	0.0563457	0.0550291	0.962584	3.03586	0	1.40148
0.059	159.219	0.076362	0.559654	0.328995	0.0578809	0.0519428	1.16336	2.01321	0	0.884391
0.0595	159.243	0.084625	0.559707	0.329972	0.0593059	0.0586632	1.73757	1.40009	0	0.732693
0.06	159.205	0.0711465	0.55939	0.328761	0.0539966	0.0491433	0.400591	1.70458	0	1.01637
0.0605	159.246	0.0851805	0.559525	0.329421	0.0583935	0.0584695	0.973406	1.5418	0	0.861285
0.061	159.236	0.0837066	0.559433	0.328446	0.0583346	0.0513963	0.977972	2.72911	0	1.15245
0.0615	159.262	0.0906944	0.559849	0.329761	0.0592469	0.0562302	0.897066	2.46291	0	1.16663
0.062	159.2	0.0699426	0.55996	0.330435	0.0539364	0.0507993	1.16005	1.97251	0	0.843684
0.0625	159.158	0.0556168	0.559297	0.32899	0.0516605	0.0474049	0.879248	0.896954	0	0.706301
0.063	159.259	0.0887343	0.559159	0.328459	0.0562206	0.0541327	0.912538	0.905125	0	0.63464
0.0635	159.362	0.124131	0.559028	0.326981	0.0700674	0.0666505	1.25941	1.70287	0	0.69606
0.064	159.53	0.179915	0.559189	0.327126	0.084453	0.0860826	1.27237	1.8655	0	0.822052
0.0645	159.343	0.118627	0.558854	0.327224	0.0653565	0.0653079	1.08732	1.03609	0	0.702035
0.065	159.246	0.085258	0.559223	0.328245	0.0582719	0.0560831	0.828432	2.20533	0	0.941205
0.0655	159.209	0.0722454	0.559508	0.32909	0.0558594	0.0523465	0.682244	1.08068	0	0.63399
0.066	159.284	0.0974568	0.558633	0.326652	0.0574668	0.0547685	0.462908	3.4979	0	1.54097
0.0665	159.294	0.100643	0.558952	0.327951	0.0631644	0.0624141	0.46696	3.0529	0	1.37572
0.067	159.275	0.0946114	0.559111	0.327886	0.0616886	0.0576893	1.16247	2.41463	0	1.13592
0.0675	159.298	0.102801	0.558888	0.327706	0.0651785	0.0660515	0.620475	3.00554	0	1.26797
0.068	159.222	0.077722	0.559221	0.329002	0.0602091	0.0608696	0.979973	1.97759	0	1.01575
0.0685	159.245	0.0851783	0.559561	0.329293	0.0565447	0.0541658	1.04693	2.28961	0	0.823453
0.069	159.342	0.117173	0.559108	0.327283	0.0647625	0.0599359	0.704101	1.62657	0	0.676817
0.0695	159.367	0.127005	0.559571	0.32868	0.0707454	0.0696548	0.668713	1.86873	0	0.946671
0.07	159.369	0.126589	0.558903	0.32723	0.0720086	0.0710219	1.17733	1.50533	0	0.715378
0.0705	159.356	0.123152	0.559276	0.328486	0.0687998	0.0679751	0.899758	2.04643	0	0.867708
0.071	159.423	0.14346	0.559489	0.328922	0.0730301	0.0772806	1.05286	2.20592	0	0.751354
0.0715	159.53	0.1802	0.559348	0.327763	0.0796968	0.0813805	0.751531	1.84725	0	0.870735
0.072	159.412	0.142445	0.558436	0.326986	0.0740286	0.0762289	0.683638	1.15705	0	0.646186
0.0725	159.474	0.161623	0.559773	0.329239	0.0786403	0.0806635	1.06312	1.86049	0	1.00849
0.073	159.523	0.176314	0.559055	0.32839	0.0817997	0.0870918	0.922924	1.13501	0	0.733472
0.0735	159.548	0.188774	0.559562	0.327775	0.0823123	0.0829835	0.993699	1.85491	0	0.875596
0.074	159.732	0.245494	0.559808	0.400436	0.18615	0.301062	0.776185	2.21819	0	1.141
0.0745	159.647	0.21717	0.559839	0.478745	0.271802	0.510112	0.678486	3.02821	0	1.39264
0.075	159.451	0.152979	0.558882	0.478607	0.268084	0.510585	0.93479	3.26787	0	1.66371
0.0755	159.395	0.136212	0.558618	0.477744	0.266392	0.509945	1.04518	2.71937	0	1.1796
0.076	159.411	0.142631	0.559894	0.480944	0.266433	0.513336	1.1065	2.85307	0	1.28922
0.0765	159.379	0.130675	0.559137	0.481493	0.266618	0.51378	1.14419	2.93681	0	1.17594
0.077	159.482	0.163781	0.559025	0.55375	0.341812	0.511607	1.23432	3.11244	0	1.42845
0.0775	159.508	0.17287	0.559083	0.569654	0.356517	0.511062	1.27944	3.40283	0	1.22273
0.078	159.534	0.181037	0.559511	0.570676	0.356978	0.511102	1.48224	2.64349	0	1.02428
0.0785	159.693	0.230173	0.559812	0.568624	0.359945	0.51032	1.44685	2.59599	0	1.09251
0.079	159.607	0.20445	0.558853	0.584192	0.372167	0.534725	1.17235	3.10663	0	1.38261
0.0795	159.741	0.249426	0.559608	0.624463	0.416126	0.604972	1.36549	3.30509	0	1.11748
0.08	159.565	0.193523	0.55965	0.628217	0.412122	0.607706	1.37456	3.24061	0	1.34662
0.0805	159.636	0.21522	0.559959	0.625498	0.415223	0.604616	1.34434	3.24441	0	1.19723
0.081	159.78	0.265463	0.559803	0.587073	0.378407	0.60427	1.38914	2.93797	0	1.06673
0.0815	159.716	0.249105	0.560126	0.530583	0.321404	0.564579	0.84765	2.50089	0	1.18048
0.082	159.574	0.197128	0.559377	0.479803	0.269642	0.512074	0.988012	2.75056	0	1.40005
0.0825	159.494	0.170873	0.559514	0.480397	0.268377	0.512396	1.01579	2.62418	0	1.18819
0.083	159.326	0.111897	0.55893	0.480949	0.265741	0.513263	0.755227	1.91958	0	0.752809
0.0835	159.425	0.146828	0.559413	0.481341	0.2686	0.513622	1.14254	2.50362	0	0.945824
0.084	159.525	0.185483	0.559538	0.479631	0.26896	0.511437	1.06308	2.39392	0	1.11746
0.0845	159.809	0.268988	0.560004	0.555698	0.35901	0.588983	0.829829	3.12592	0	1.38961
0.085	159.568	0.192705	0.559156	0.625458	0.413364	0.661284	1.14203	3.19076	0	1.19219
0.0855	159.464	0.157473	0.55899	0.629124	0.410745	0.665245	1.16591	2.34033	0	0.933448
0.086	159.446	0.152706	0.559629	0.630153	0.409512	0.666565	1.01058	2.67824	0	1.12725
0.0865	159.642	0.220929	0.558924	0.625002	0.412685	0.660853	1.03474	2.88567	0	1.22335
0.087	159.469	0.161892	0.559116	0.628183	0.41145	0.664438	0.770159	3.33771	0	1.35776
0.0875	159.38	0.131357	0.559222	0.627407	0.409617	0.66387	1.06379	2.96657	0	1.3353
0.088	159.341	0.116518	0.559862	0.630721	0.409232	0.667381	1.25422	3.08317	0	1.2504
0.0885	159.36	0.123675	0.558587	0.62714	0.409986	0.663454	0.883543	3.44811	0	1.33411
0.089	159.446	0.152979	0.559388	0.628944	0.410343	0.665193	0.811807	2.81431	0	1.28959
0.0895	159.604	0.209418	0.559189	0.626164	0.414001	0.661973	1.48117	2.88005	0	1.18414
0.09	159.769	0.25423	0.559719	0.565324	0.364266	0.600455	1.22472	2.76541	0	1.34122
0.0905	159.975	0.32522	0.559814	0.563312	0.476706	0.56897	1.47309	3.30334	0	1.53065
0.091	159.988	0.322973	0.560126	0.639915	0.447294	0.665758	1.22571	2.22786	0	0.960151
0.0915	160.083	0.362861	0.560059	0.641058	0.436462	0.632933	1.3613	2.50275	0	1.0737
0.092	159.753	0.251107	0.559252	0.556488	0.544743	0.574587	1.42692	2.53198	0	0.943377
0.0925	159.485	0.165591	0.55951	0.661991	0.47302	0.692031	1.20341	2.14015	0	0.878261
0.093	159.624	0.222298	0.560193	0.663268	0.472635	0.694094	1.43947	3.07252	0	1.26671
0.0935	159.755	0.255896	0.559713	0.660153	0.474198	0.689849	1.3535	2.99601	0	1.11392
0.094	159.529	0.180275	0.559623	0.661354	0.473644	0.691821	1.49765	3.04026	0	1.10198
0.0945	159.751	0.254288	0.56048	0.659341	0.470996	0.688757	1.4737	3.05048	0	1.26278
0.095	159.989	0.322823	0.559756	0.514415	0.568705	0.515628	1.39597	2.55945	0	1.21931
0.0955	160.043	0.352399	0.561006	0.524252	0.553747	0.522863	1.42916	2.07349	0	0.914711
0.096	159.876	0.289348	0.559426	0.584058	0.387583	0.616551	1.26187	2.19891	0	0.757445
0.0965	159.704	0.245182	0.560054	0.569268	0.359878	0.604927	1.1234	2.6782	0	1.14734
0.097	159.472	0.161739	0.559178	0.570185	0.354694	0.606737	1.29145	2.97799	0	1.07624
0.0975	159.594	0.200269	0.558792	0.610941	0.39901	0.646611	1.07872	3.75746	0	1.43233
0.098	159.803	0.272354	0.560039	0.468863	0.608588	0.450468	1.50702	2.05533	0	0.961872
0.0985	159.771	0.260632	0.5598	0.466865	0.609454	0.448039	1.56739	2.55284	0	0.985852
0.099	159.65	0.22212	0.559745	0.458964	0.612188	0.428643	1.50626	2.38181	0	0.668975
0.0995	159.862	0.287062	0.559996	0.458384	0.61002	0.423512	1.12719	2.1201	0	1.06489
0.1	159.964	0.315722	0.558817	0.491062	0.569837	0.417432	1.32663	2.50798	0	1.00406
0.1005	159.842	0.281398	0.5604	0.444869	0.611239	0.451623	1.17235	2.75384	0	1.20111
0.101	160.09	0.353307	0.559228	0.469385	0.603618	0.472944	1.19959	2.32985	0	1.18125
0.1015	160.274	0.414471	0.560021	0.521215	0.564297	0.530757	1.50992	2.7184	0	1.26689
0.102	160.083	0.354842	0.559485	0.606513	0.506341	0.528781	1.05514	2.5827	0	1.09043
0.1025	160.091	0.359426	0.56087	0.509736	0.560202	0.515444	1.20432	2.48495	0	1.03084
0.103	159.886	0.292697	0.558961	0.614266	0.423566	0.623834	1.43342	2.90905	0	1.14716
0.1035	159.73	0.244769	0.559729	0.418339	0.567726	0.433935	1.54392	2.43165	0	1.03416
0.104	160.044	0.342265	0.561062	0.531751	0.556857	0.533032	1.02284	2.81034	0	1.17785
0.1045	160.071	0.353603	0.55971	0.523316	0.55844	0.532335	1.26927	2.17537	0	1.00999
0.105	159.754	0.259615	0.560747	0.411998	0.607994	0.428366	1.10451	2.64903	0	1.0356
0.1055	159.792	0.263725	0.55961	0.350038	0.595097	0.366507	1.27881	2.23252	0	0.836058
0.106	160.245	0.406473	0.560375	0.45891	0.582076	0.462297	1.29644	2.99031	0	1.4453
0.1065	160.088	0.359217	0.559951	0.411333	0.603571	0.426896	1.26788	2.39017	0	0.94538
0.107	160.315	0.428265	0.561164	0.433941	0.573718	0.429737	1.35557	2.21367	0	0.920057
0.1075	160.217	0.400044	0.55999	0.594791	0.492063	0.592628	1.53538	2.01874	0	0.837961
0.108	160.684	0.546624	0.561526	0.542197	0.543554	0.545521	1.3003	1.72528	0	0.776027
0.1085	160.498	0.484809	0.560226	0.536878	0.556923	0.52908	1.55452	2.08328	0	0.927263
0.109	160.387	0.45339	0.560925	0.597036	0.504783	0.576525	1.09772	2.47385	0	1.05304
0.1095	160.402	0.454409	0.56022	0.469746	0.569008	0.480634	1.40409	2.8228	0	1.29676
0.11	160.916	0.621489	0.563051	0.535111	0.539528	0.514122	1.28564	2.70762	0	1.0082
0.1105	160.894	0.615353	0.563086	0.592845	0.500388	0.601378	1.19567	2.09016	0	0.922561
0.111	160.399	0.463607	0.561877	0.627308	0.469249	0.474413	1.05677	2.32838	0	1.13721
0.1115	160.588	0.518011	0.562201	0.611713	0.495476	0.595918	1.02118	2.75864	0	1.26597
0.112	160.04	0.342981	0.559412	0.42668	0.60396	0.439431	1.43172	1.89891	0	0.944766
0.1125	160.089	0.356628	0.560565	0.515929	0.540731	0.531847	1.59469	2.01394	0	0.754259
0.113	160.051	0.343211	0.559535	0.613439	0.494859	0.606699	1.32157	2.3215	0	0.980303
0.1135	159.946	0.310757	0.560362	0.655111	0.457731	0.67265	0.943884	2.62215	0	1.02637
0.114	159.88	0.29493	0.558701	0.66163	0.462621	0.676139	1.30329	2.76962	0	0.999729
0.1145	160.375	0.455337	0.561821	0.500596	0.570005	0.487039	1.35846	2.07099	0	0.956735
0.115	160.43	0.471479	0.561455	0.47106	0.576402	0.475389	1.62731	1.7749	0	0.77031
0.1155	159.857	0.292078	0.559685	0.655141	0.475301	0.684874	1.53492	2.5147	0	0.879441
0.116	160.546	0.500168	0.560888	0.563016	0.526477	0.524355	1.12523	2.35196	0	1.02546
0.1165	160.365	0.444197	0.561216	0.479961	0.593934	0.471411	1.50195	2.49915	0	0.97919
0.117	160.576	0.511686	0.561615	0.499397	0.555057	0.480306	1.31296	1.76036	0	0.875368
0.1175	160.368	0.440938	0.560059	0.590101	0.506977	0.571189	1.1131	2.3858	0	1.04605
0.118	160.826	0.594501	0.561273	0.559637	0.531707	0.478503	1.3731	2.33112	0	0.991128
0.1185	161.041	0.669653	0.563001	0.545967	0.546271	0.525338	1.21226	2.52801	0	0.978965
0.119	161.489	0.817196	0.565471	0.539145	0.543276	0.518878	1.01923	2.16564	0	0.960693
0.1195	160.664	0.538255	0.561456	0.547703	0.546894	0.529666	1.53126	1.92055	0	0.816472
0.12	160.709	0.550074	0.561114	0.514239	0.571606	0.514465	1.52714	2.03601	0	0.913272
0.1205	161.472	0.817991	0.565679	0.57053	0.527863	0.564519	1.08705	2.42947	0	1.10125
0.121	160.771	0.575418	0.562204	0.487637	0.581613	0.489792	1.21881	2.43604	0	0.937274
0.1215	160.49	0.485889	0.560955	0.472967	0.578899	0.463478	1.19037	2.41278	0	1.05944
0.122	160.472	0.479321	0.56067	0.332599	0.586184	0.300023	1.45439	1.82904	0	0.686205
0.1225	159.922	0.304655	0.560129	0.581214	0.528526	0.590153	1.32435	2.70354	0	0.966957
0.123	160.404	0.46525	0.560773	0.530627	0.545985	0.524059	1.39686	1.93625	0	0.769023
0.1235	160.71	0.555266	0.562088	0.494017	0.572844	0.490963	1.34359	2.3647	0	1.2244
0.124	160.442	0.467664	0.560483	0.530033	0.545147	0.524701	1.3066	2.79718	0	1.21
0.1245	159.996	0.3352	0.560283	0.662978	0.47121	0.681609	1.05447	2.78175	0	1.16707
0.125	160.376	0.451126	0.561506	0.501044	0.554138	0.501995	1.1205	2.42066	0	1.09207
0.1255	160.462	0.473762	0.561114	0.44551	0.600914	0.452153	1.49841	1.43498	0	0.665686
0.126	160.613	0.523398	0.561629	0.515994	0.566829	0.509551	1.42532	2.3055	0	1.02941
0.1265	160.705	0.557001	0.561598	0.53079	0.545001	0.534903	1.19876	2.14938	0	0.944955
0.127	160.483	0.492862	0.562379	0.561517	0.526286	0.567853	1.13158	2.1317	0	0.78063
0.1275	160.415	0.455914	0.561078	0.484539	0.577863	0.457791	1.3091	2.16973	0	0.80459
0.128	160.521	0.494228	0.561693	0.581957	0.497263	0.561929	1.11136	2.48271	0	1.00807
0.1285	160.769	0.575844	0.561696	0.499174	0.532182	0.506936	1.37992	2.3897	0	1.05465
0.129	160.704	0.558029	0.561357	0.554725	0.541682	0.517479	1.21231	2.54425	0	1.03673
0.1295	160.88	0.607302	0.562345	0.572104	0.517976	0.577757	1.2936	2.81847	0	1.1801
0.13	160.678	0.550709	0.561227	0.436647	0.589849	0.429029	1.50722	2.23246	0	1.01938
0.1305	160.552	0.502845	0.560861	0.518833	0.558685	0.519194	1.27074	2.48298	0	0.990124
0.131	160.419	0.460217	0.55993	0.468466	0.590299	0.444401	1.11593	2.1273	0	0.934393
0.1315	161.212	0.718688	0.563521	0.5406	0.541626	0.534882	1.32411	1.88716	0	0.804724
0.132	161.445	0.806885	0.565278	0.562942	0.538419	0.565708	1.19779	2.56576	0	0.997238
0.1325	161.34	0.763688	0.564822	0.533444	0.543079	0.531016	1.06896	1.94119	0	0.951652
0.133	161.25	0.739629	0.564052	0.540591	0.542133	0.546023	1.35719	2.40124	0	1.01235
0.1335	161.147	0.705937	0.563818	0.503664	0.5743	0.502989	1.14557	2.40486	0	1.07714
0.134	160.629	0.528346	0.563094	0.535158	0.521719	0.520817	1.06597	2.57758	0	1.13619
0.1345	160.654	0.542967	0.562235	0.585509	0.524139	0.593296	1.18043	2.64386	0	0.899805
0.135	161.439	0.800525	0.566572	0.539436	0.545658	0.529078	1.47471	2.3369	0	0.966276
0.1355	161.415	0.795743	0.564552	0.540051	0.539038	0.526737	1.21501	2.17783	0	0.93994
0.136	161.196	0.71655	0.562375	0.539245	0.550912	0.539993	1.21114	2.661	0	1.22845
0.1365	160.791	0.586051	0.562006	0.501947	0.530476	0.470627	1.17308	2.45232	0	0.979153
0.137	160.553	0.506809	0.561118	0.522824	0.559026	0.51687	1.39807	2.8501	0	1.14591
0.1375	160.45	0.471342	0.560988	0.492255	0.584349	0.490831	1.40958	3.11137	0	1.21845
0.138	160.637	0.530288	0.561676	0.524614	0.530252	0.510549	1.23804	2.50392	0	1.13305
0.1385	161.579	0.84713	0.566096	0.515608	0.561323	0.506224	1.39747	2.73536	0	1.18654
0.139	160.422	0.461349	0.560693	0.492269	0.581978	0.493741	1.12871	2.20653	0	0.959184
0.1395	160.585	0.513791	0.562243	0.511521	0.563543	0.511014	1.36771	2.21839	0	0.882988
0.14	161.413	0.784809	0.56413	0.556384	0.53577	0.55785	1.0702	2.41345	0	1.02556
0.1405	161.698	0.892634	0.567123	0.581913	0.533287	0.577314	1.27733	2.55508	0	1.12861
0.141	161.502	0.826823	0.566041	0.511098	0.571832	0.508412	1.23671	2.19608	0	1.04471
0.1415	160.959	0.636094	0.561998	0.550323	0.539455	0.518702	1.19981	2.6045	0	1.10186
0.142	161.207	0.71774	0.564241	0.488537	0.586854	0.492498	1.41839	2.49677	0	0.977357
0.1425	161.134	0.707763	0.563645	0.506683	0.559152	0.507826	1.18263	2.61749	0	1.05958
0.143	161.412	0.791794	0.564728	0.535936	0.550336	0.542084	1.01667	2.37242	0	1.12569
0.1435	161.067	0.687394	0.564054	0.472458	0.556087	0.462722	1.20074	2.24973	0	0.957687
0.144	161.151	0.699821	0.564092	0.516714	0.565528	0.503341	1.01628	2.59121	0	1.19903
0.1445	160.377	0.446202	0.559844	0.582531	0.523055	0.581294	1.39973	2.51113	0	0.998437
0.145	160.563	0.507323	0.56032	0.536444	0.547787	0.53123	1.34062	2.19293	0	0.950295
0.1455	161.189	0.710331	0.563507	0.553786	0.534648	0.551735	1.1359	2.60505	0	1.1527
0.146	160.641	0.537257	0.562816	0.520539	0.562068	0.475109	1.15454	2.07719	0	0.891024
0.1465	161.668	0.876746	0.566055	0.551377	0.539247	0.554176	1.40054	2.44974	0	1.02475
0.147	162.089	1.02743	0.569309	0.548378	0.548157	0.540383	1.26505	2.45351	0	0.992633
0.1475	162.597	1.20531	0.571131	0.518876	0.571085	0.5161	1.38996	2.37602	0	0.987908
0.148	162.234	1.08388	0.569487	0.543892	0.546727	0.536716	1.36283	2.54457	0	1.0996
0.1485	160.772	0.573814	0.561738	0.524605	0.553382	0.531322	1.40119	2.20716	0	0.946044
0.149	161.653	0.868176	0.564846	0.500862	0.565141	0.512029	1.29821	2.56552	0	1.09958
0.1495	161.796	0.931152	0.567353	0.575895	0.534438	0.534973	1.10374	2.61231	0	1.1791
